Lesson 5 AOS 2021 | eBird Status Data Products Workshop
…
We can think of the PIs and PDs telling us something about the strength and directionality of a habitat association, respectively. For example, there is a strong positive association with dense herbaceous cover. The regional habitat charts on the eBird Status and Trends website combine the PI and PD information to visualize how species associate with different habitat types throughout the year, giving both the strength and direction of that association. The function ebirdst_habitat() generates the data behind these plots for a given region.

habitat <- ebirdst_habitat(sp_path, ext = la_breeding)
habitat
#> # A tibble: 1,248 × 5
#>   predictor                     date importance prob_pos_slope direction
#> * <chr>                        <dbl>      <dbl>          <dbl>     <dbl>
#> 1 intertidal_fs_c1_1500_pland 0.0096    0.00423          0.308        NA
#> 2 intertidal_fs_c1_1500_pland 0.0288    0.00428          0.307        NA
#> 3 intertidal_fs_c1_1500_pland 0.0481    0.00433          0.308        NA
#> 4 intertidal_fs_c1_1500_pland 0.0673    0.00438          0.308        NA
#> 5 intertidal_fs_c1_1500_pland 0.0865    0.00444          0.308        NA
#> 6 intertidal_fs_c1_1500_pland 0.106     0.00451          0.308        NA
#> # … with 1,242 more rows
…
